Part A exam: Reproducing Figure 4
…
# Add date column
daily_counts = daily_counts %>%
  mutate(
    # For whatever reason indexing starts at 0, meaning Day 0 is the 01.01 of a year. Therefore -1 for the dates
     date =  as.Date(Day - 1, origin = sprintf("%s-01-01", Year)),
     `N_fry` = `N fry`,
     `N_parr` = `N parr`,
     `N_smolt` = `N smolt`,
     # Converting units to metric ones
     Flow = `Flow (CFS)` /35.313378,
     temperature = (`Temperature (oF)` - 32) *5/9
    )
daily_counts

# A tibble: 362 × 14
    Year   Day `Flow (CFS)` `Temperature (oF)` `Turbidity (NTU)` `N fry`
   <dbl> <dbl>        <dbl>              <dbl>             <dbl>   <dbl>
 1  2000     1          360               47.5             1.4     0    
 2  2000     2          359               47.8             0.997   0.599
 3  2000     3          358               48.0             0.9     0    
 4  2000     4          360               47.5             1       0    
 5  2000     5          362               47.5             0.9     0    
 6  2000     6          354               47.5             0.75    0    
 7  2000     7          352               48.0             0.65   10.8  
 8  2000     8          355               47.8             0.5    11.3  
 9  2000     9          354               47.2             1.3    11.6  
10  2000    10          352               48.0             1.3     0    
# ℹ 352 more rows
# ℹ 8 more variables: `N parr` <dbl>, `N smolt` <dbl>, date <date>,
#   N_fry <dbl>, N_parr <dbl>, N_smolt <dbl>, Flow <dbl>, temperature <dbl>
…
